%!PS-Adobe-2.0
%%Title: vmulti.ps
%%Creator: gnuplot 4.6 patchlevel 0
%%CreationDate: Wed Oct 10 12:52:01 2012
%%DocumentFonts: (atend)
%%BoundingBox: 50 50 554 770
%%Orientation: Landscape
%%Pages: (atend)
%%EndComments
%%BeginProlog
/gnudict 256 dict def
gnudict begin
%
% The following true/false flags may be edited by hand if desired.
% The unit line width and grayscale image gamma correction may also be changed.
%
/Color true def
/Blacktext false def
/Solid false def
/Dashlength 1 def
/Landscape true def
/Level1 false def
/Rounded false def
/ClipToBoundingBox false def
/SuppressPDFMark false def
/TransparentPatterns false def
/gnulinewidth 10.000 def
/userlinewidth gnulinewidth def
/Gamma 1.0 def
/BackgroundColor {-1.000 -1.000 -1.000} def
%
/vshift -43 def
/dl1 {
  10.0 Dashlength mul mul
  Rounded { currentlinewidth 0.75 mul sub dup 0 le { pop 0.01 } if } if
} def
/dl2 {
  10.0 Dashlength mul mul
  Rounded { currentlinewidth 0.75 mul add } if
} def
/hpt_ 31.5 def
/vpt_ 31.5 def
/hpt hpt_ def
/vpt vpt_ def
/doclip {
  ClipToBoundingBox {
    newpath 50 50 moveto 554 50 lineto 554 770 lineto 50 770 lineto closepath
    clip
  } if
} def
%
% Gnuplot Prolog Version 4.4 (August 2010)
%
%/SuppressPDFMark true def
%
/M {moveto} bind def
/L {lineto} bind def
/R {rmoveto} bind def
/V {rlineto} bind def
/N {newpath moveto} bind def
/Z {closepath} bind def
/C {setrgbcolor} bind def
/f {rlineto fill} bind def
/g {setgray} bind def
/Gshow {show} def   % May be redefined later in the file to support UTF-8
/vpt2 vpt 2 mul def
/hpt2 hpt 2 mul def
/Lshow {currentpoint stroke M 0 vshift R 
	Blacktext {gsave 0 setgray show grestore} {show} ifelse} def
/Rshow {currentpoint stroke M dup stringwidth pop neg vshift R
	Blacktext {gsave 0 setgray show grestore} {show} ifelse} def
/Cshow {currentpoint stroke M dup stringwidth pop -2 div vshift R 
	Blacktext {gsave 0 setgray show grestore} {show} ifelse} def
/UP {dup vpt_ mul /vpt exch def hpt_ mul /hpt exch def
  /hpt2 hpt 2 mul def /vpt2 vpt 2 mul def} def
/DL {Color {setrgbcolor Solid {pop []} if 0 setdash}
 {pop pop pop 0 setgray Solid {pop []} if 0 setdash} ifelse} def
/BL {stroke userlinewidth 2 mul setlinewidth
	Rounded {1 setlinejoin 1 setlinecap} if} def
/AL {stroke userlinewidth 2 div setlinewidth
	Rounded {1 setlinejoin 1 setlinecap} if} def
/UL {dup gnulinewidth mul /userlinewidth exch def
	dup 1 lt {pop 1} if 10 mul /udl exch def} def
/PL {stroke userlinewidth setlinewidth
	Rounded {1 setlinejoin 1 setlinecap} if} def
3.8 setmiterlimit
% Default Line colors
/LCw {1 1 1} def
/LCb {0 0 0} def
/LCa {0 0 0} def
/LC0 {1 0 0} def
/LC1 {0 1 0} def
/LC2 {0 0 1} def
/LC3 {1 0 1} def
/LC4 {0 1 1} def
/LC5 {1 1 0} def
/LC6 {0 0 0} def
/LC7 {1 0.3 0} def
/LC8 {0.5 0.5 0.5} def
% Default Line Types
/LTw {PL [] 1 setgray} def
/LTb {BL [] LCb DL} def
/LTa {AL [1 udl mul 2 udl mul] 0 setdash LCa setrgbcolor} def
/LT0 {PL [] LC0 DL} def
/LT1 {PL [4 dl1 2 dl2] LC1 DL} def
/LT2 {PL [2 dl1 3 dl2] LC2 DL} def
/LT3 {PL [1 dl1 1.5 dl2] LC3 DL} def
/LT4 {PL [6 dl1 2 dl2 1 dl1 2 dl2] LC4 DL} def
/LT5 {PL [3 dl1 3 dl2 1 dl1 3 dl2] LC5 DL} def
/LT6 {PL [2 dl1 2 dl2 2 dl1 6 dl2] LC6 DL} def
/LT7 {PL [1 dl1 2 dl2 6 dl1 2 dl2 1 dl1 2 dl2] LC7 DL} def
/LT8 {PL [2 dl1 2 dl2 2 dl1 2 dl2 2 dl1 2 dl2 2 dl1 4 dl2] LC8 DL} def
/Pnt {stroke [] 0 setdash gsave 1 setlinecap M 0 0 V stroke grestore} def
/Dia {stroke [] 0 setdash 2 copy vpt add M
  hpt neg vpt neg V hpt vpt neg V
  hpt vpt V hpt neg vpt V closepath stroke
  Pnt} def
/Pls {stroke [] 0 setdash vpt sub M 0 vpt2 V
  currentpoint stroke M
  hpt neg vpt neg R hpt2 0 V stroke
 } def
/Box {stroke [] 0 setdash 2 copy exch hpt sub exch vpt add M
  0 vpt2 neg V hpt2 0 V 0 vpt2 V
  hpt2 neg 0 V closepath stroke
  Pnt} def
/Crs {stroke [] 0 setdash exch hpt sub exch vpt add M
  hpt2 vpt2 neg V currentpoint stroke M
  hpt2 neg 0 R hpt2 vpt2 V stroke} def
/TriU {stroke [] 0 setdash 2 copy vpt 1.12 mul add M
  hpt neg vpt -1.62 mul V
  hpt 2 mul 0 V
  hpt neg vpt 1.62 mul V closepath stroke
  Pnt} def
/Star {2 copy Pls Crs} def
/BoxF {stroke [] 0 setdash exch hpt sub exch vpt add M
  0 vpt2 neg V hpt2 0 V 0 vpt2 V
  hpt2 neg 0 V closepath fill} def
/TriUF {stroke [] 0 setdash vpt 1.12 mul add M
  hpt neg vpt -1.62 mul V
  hpt 2 mul 0 V
  hpt neg vpt 1.62 mul V closepath fill} def
/TriD {stroke [] 0 setdash 2 copy vpt 1.12 mul sub M
  hpt neg vpt 1.62 mul V
  hpt 2 mul 0 V
  hpt neg vpt -1.62 mul V closepath stroke
  Pnt} def
/TriDF {stroke [] 0 setdash vpt 1.12 mul sub M
  hpt neg vpt 1.62 mul V
  hpt 2 mul 0 V
  hpt neg vpt -1.62 mul V closepath fill} def
/DiaF {stroke [] 0 setdash vpt add M
  hpt neg vpt neg V hpt vpt neg V
  hpt vpt V hpt neg vpt V closepath fill} def
/Pent {stroke [] 0 setdash 2 copy gsave
  translate 0 hpt M 4 {72 rotate 0 hpt L} repeat
  closepath stroke grestore Pnt} def
/PentF {stroke [] 0 setdash gsave
  translate 0 hpt M 4 {72 rotate 0 hpt L} repeat
  closepath fill grestore} def
/Circle {stroke [] 0 setdash 2 copy
  hpt 0 360 arc stroke Pnt} def
/CircleF {stroke [] 0 setdash hpt 0 360 arc fill} def
/C0 {BL [] 0 setdash 2 copy moveto vpt 90 450 arc} bind def
/C1 {BL [] 0 setdash 2 copy moveto
	2 copy vpt 0 90 arc closepath fill
	vpt 0 360 arc closepath} bind def
/C2 {BL [] 0 setdash 2 copy moveto
	2 copy vpt 90 180 arc closepath fill
	vpt 0 360 arc closepath} bind def
/C3 {BL [] 0 setdash 2 copy moveto
	2 copy vpt 0 180 arc closepath fill
	vpt 0 360 arc closepath} bind def
/C4 {BL [] 0 setdash 2 copy moveto
	2 copy vpt 180 270 arc closepath fill
	vpt 0 360 arc closepath} bind def
/C5 {BL [] 0 setdash 2 copy moveto
	2 copy vpt 0 90 arc
	2 copy moveto
	2 copy vpt 180 270 arc closepath fill
	vpt 0 360 arc} bind def
/C6 {BL [] 0 setdash 2 copy moveto
	2 copy vpt 90 270 arc closepath fill
	vpt 0 360 arc closepath} bind def
/C7 {BL [] 0 setdash 2 copy moveto
	2 copy vpt 0 270 arc closepath fill
	vpt 0 360 arc closepath} bind def
/C8 {BL [] 0 setdash 2 copy moveto
	2 copy vpt 270 360 arc closepath fill
	vpt 0 360 arc closepath} bind def
/C9 {BL [] 0 setdash 2 copy moveto
	2 copy vpt 270 450 arc closepath fill
	vpt 0 360 arc closepath} bind def
/C10 {BL [] 0 setdash 2 copy 2 copy moveto vpt 270 360 arc closepath fill
	2 copy moveto
	2 copy vpt 90 180 arc closepath fill
	vpt 0 360 arc closepath} bind def
/C11 {BL [] 0 setdash 2 copy moveto
	2 copy vpt 0 180 arc closepath fill
	2 copy moveto
	2 copy vpt 270 360 arc closepath fill
	vpt 0 360 arc closepath} bind def
/C12 {BL [] 0 setdash 2 copy moveto
	2 copy vpt 180 360 arc closepath fill
	vpt 0 360 arc closepath} bind def
/C13 {BL [] 0 setdash 2 copy moveto
	2 copy vpt 0 90 arc closepath fill
	2 copy moveto
	2 copy vpt 180 360 arc closepath fill
	vpt 0 360 arc closepath} bind def
/C14 {BL [] 0 setdash 2 copy moveto
	2 copy vpt 90 360 arc closepath fill
	vpt 0 360 arc} bind def
/C15 {BL [] 0 setdash 2 copy vpt 0 360 arc closepath fill
	vpt 0 360 arc closepath} bind def
/Rec {newpath 4 2 roll moveto 1 index 0 rlineto 0 exch rlineto
	neg 0 rlineto closepath} bind def
/Square {dup Rec} bind def
/Bsquare {vpt sub exch vpt sub exch vpt2 Square} bind def
/S0 {BL [] 0 setdash 2 copy moveto 0 vpt rlineto BL Bsquare} bind def
/S1 {BL [] 0 setdash 2 copy vpt Square fill Bsquare} bind def
/S2 {BL [] 0 setdash 2 copy exch vpt sub exch vpt Square fill Bsquare} bind def
/S3 {BL [] 0 setdash 2 copy exch vpt sub exch vpt2 vpt Rec fill Bsquare} bind def
/S4 {BL [] 0 setdash 2 copy exch vpt sub exch vpt sub vpt Square fill Bsquare} bind def
/S5 {BL [] 0 setdash 2 copy 2 copy vpt Square fill
	exch vpt sub exch vpt sub vpt Square fill Bsquare} bind def
/S6 {BL [] 0 setdash 2 copy exch vpt sub exch vpt sub vpt vpt2 Rec fill Bsquare} bind def
/S7 {BL [] 0 setdash 2 copy exch vpt sub exch vpt sub vpt vpt2 Rec fill
	2 copy vpt Square fill Bsquare} bind def
/S8 {BL [] 0 setdash 2 copy vpt sub vpt Square fill Bsquare} bind def
/S9 {BL [] 0 setdash 2 copy vpt sub vpt vpt2 Rec fill Bsquare} bind def
/S10 {BL [] 0 setdash 2 copy vpt sub vpt Square fill 2 copy exch vpt sub exch vpt Square fill
	Bsquare} bind def
/S11 {BL [] 0 setdash 2 copy vpt sub vpt Square fill 2 copy exch vpt sub exch vpt2 vpt Rec fill
	Bsquare} bind def
/S12 {BL [] 0 setdash 2 copy exch vpt sub exch vpt sub vpt2 vpt Rec fill Bsquare} bind def
/S13 {BL [] 0 setdash 2 copy exch vpt sub exch vpt sub vpt2 vpt Rec fill
	2 copy vpt Square fill Bsquare} bind def
/S14 {BL [] 0 setdash 2 copy exch vpt sub exch vpt sub vpt2 vpt Rec fill
	2 copy exch vpt sub exch vpt Square fill Bsquare} bind def
/S15 {BL [] 0 setdash 2 copy Bsquare fill Bsquare} bind def
/D0 {gsave translate 45 rotate 0 0 S0 stroke grestore} bind def
/D1 {gsave translate 45 rotate 0 0 S1 stroke grestore} bind def
/D2 {gsave translate 45 rotate 0 0 S2 stroke grestore} bind def
/D3 {gsave translate 45 rotate 0 0 S3 stroke grestore} bind def
/D4 {gsave translate 45 rotate 0 0 S4 stroke grestore} bind def
/D5 {gsave translate 45 rotate 0 0 S5 stroke grestore} bind def
/D6 {gsave translate 45 rotate 0 0 S6 stroke grestore} bind def
/D7 {gsave translate 45 rotate 0 0 S7 stroke grestore} bind def
/D8 {gsave translate 45 rotate 0 0 S8 stroke grestore} bind def
/D9 {gsave translate 45 rotate 0 0 S9 stroke grestore} bind def
/D10 {gsave translate 45 rotate 0 0 S10 stroke grestore} bind def
/D11 {gsave translate 45 rotate 0 0 S11 stroke grestore} bind def
/D12 {gsave translate 45 rotate 0 0 S12 stroke grestore} bind def
/D13 {gsave translate 45 rotate 0 0 S13 stroke grestore} bind def
/D14 {gsave translate 45 rotate 0 0 S14 stroke grestore} bind def
/D15 {gsave translate 45 rotate 0 0 S15 stroke grestore} bind def
/DiaE {stroke [] 0 setdash vpt add M
  hpt neg vpt neg V hpt vpt neg V
  hpt vpt V hpt neg vpt V closepath stroke} def
/BoxE {stroke [] 0 setdash exch hpt sub exch vpt add M
  0 vpt2 neg V hpt2 0 V 0 vpt2 V
  hpt2 neg 0 V closepath stroke} def
/TriUE {stroke [] 0 setdash vpt 1.12 mul add M
  hpt neg vpt -1.62 mul V
  hpt 2 mul 0 V
  hpt neg vpt 1.62 mul V closepath stroke} def
/TriDE {stroke [] 0 setdash vpt 1.12 mul sub M
  hpt neg vpt 1.62 mul V
  hpt 2 mul 0 V
  hpt neg vpt -1.62 mul V closepath stroke} def
/PentE {stroke [] 0 setdash gsave
  translate 0 hpt M 4 {72 rotate 0 hpt L} repeat
  closepath stroke grestore} def
/CircE {stroke [] 0 setdash 
  hpt 0 360 arc stroke} def
/Opaque {gsave closepath 1 setgray fill grestore 0 setgray closepath} def
/DiaW {stroke [] 0 setdash vpt add M
  hpt neg vpt neg V hpt vpt neg V
  hpt vpt V hpt neg vpt V Opaque stroke} def
/BoxW {stroke [] 0 setdash exch hpt sub exch vpt add M
  0 vpt2 neg V hpt2 0 V 0 vpt2 V
  hpt2 neg 0 V Opaque stroke} def
/TriUW {stroke [] 0 setdash vpt 1.12 mul add M
  hpt neg vpt -1.62 mul V
  hpt 2 mul 0 V
  hpt neg vpt 1.62 mul V Opaque stroke} def
/TriDW {stroke [] 0 setdash vpt 1.12 mul sub M
  hpt neg vpt 1.62 mul V
  hpt 2 mul 0 V
  hpt neg vpt -1.62 mul V Opaque stroke} def
/PentW {stroke [] 0 setdash gsave
  translate 0 hpt M 4 {72 rotate 0 hpt L} repeat
  Opaque stroke grestore} def
/CircW {stroke [] 0 setdash 
  hpt 0 360 arc Opaque stroke} def
/BoxFill {gsave Rec 1 setgray fill grestore} def
/Density {
  /Fillden exch def
  currentrgbcolor
  /ColB exch def /ColG exch def /ColR exch def
  /ColR ColR Fillden mul Fillden sub 1 add def
  /ColG ColG Fillden mul Fillden sub 1 add def
  /ColB ColB Fillden mul Fillden sub 1 add def
  ColR ColG ColB setrgbcolor} def
/BoxColFill {gsave Rec PolyFill} def
/PolyFill {gsave Density fill grestore grestore} def
/h {rlineto rlineto rlineto gsave closepath fill grestore} bind def
%
% PostScript Level 1 Pattern Fill routine for rectangles
% Usage: x y w h s a XX PatternFill
%	x,y = lower left corner of box to be filled
%	w,h = width and height of box
%	  a = angle in degrees between lines and x-axis
%	 XX = 0/1 for no/yes cross-hatch
%
/PatternFill {gsave /PFa [ 9 2 roll ] def
  PFa 0 get PFa 2 get 2 div add PFa 1 get PFa 3 get 2 div add translate
  PFa 2 get -2 div PFa 3 get -2 div PFa 2 get PFa 3 get Rec
  gsave 1 setgray fill grestore clip
  currentlinewidth 0.5 mul setlinewidth
  /PFs PFa 2 get dup mul PFa 3 get dup mul add sqrt def
  0 0 M PFa 5 get rotate PFs -2 div dup translate
  0 1 PFs PFa 4 get div 1 add floor cvi
	{PFa 4 get mul 0 M 0 PFs V} for
  0 PFa 6 get ne {
	0 1 PFs PFa 4 get div 1 add floor cvi
	{PFa 4 get mul 0 2 1 roll M PFs 0 V} for
 } if
  stroke grestore} def
%
/languagelevel where
 {pop languagelevel} {1} ifelse
 2 lt
	{/InterpretLevel1 true def}
	{/InterpretLevel1 Level1 def}
 ifelse
%
% PostScript level 2 pattern fill definitions
%
/Level2PatternFill {
/Tile8x8 {/PaintType 2 /PatternType 1 /TilingType 1 /BBox [0 0 8 8] /XStep 8 /YStep 8}
	bind def
/KeepColor {currentrgbcolor [/Pattern /DeviceRGB] setcolorspace} bind def
<< Tile8x8
 /PaintProc {0.5 setlinewidth pop 0 0 M 8 8 L 0 8 M 8 0 L stroke} 
>> matrix makepattern
/Pat1 exch def
<< Tile8x8
 /PaintProc {0.5 setlinewidth pop 0 0 M 8 8 L 0 8 M 8 0 L stroke
	0 4 M 4 8 L 8 4 L 4 0 L 0 4 L stroke}
>> matrix makepattern
/Pat2 exch def
<< Tile8x8
 /PaintProc {0.5 setlinewidth pop 0 0 M 0 8 L
	8 8 L 8 0 L 0 0 L fill}
>> matrix makepattern
/Pat3 exch def
<< Tile8x8
 /PaintProc {0.5 setlinewidth pop -4 8 M 8 -4 L
	0 12 M 12 0 L stroke}
>> matrix makepattern
/Pat4 exch def
<< Tile8x8
 /PaintProc {0.5 setlinewidth pop -4 0 M 8 12 L
	0 -4 M 12 8 L stroke}
>> matrix makepattern
/Pat5 exch def
<< Tile8x8
 /PaintProc {0.5 setlinewidth pop -2 8 M 4 -4 L
	0 12 M 8 -4 L 4 12 M 10 0 L stroke}
>> matrix makepattern
/Pat6 exch def
<< Tile8x8
 /PaintProc {0.5 setlinewidth pop -2 0 M 4 12 L
	0 -4 M 8 12 L 4 -4 M 10 8 L stroke}
>> matrix makepattern
/Pat7 exch def
<< Tile8x8
 /PaintProc {0.5 setlinewidth pop 8 -2 M -4 4 L
	12 0 M -4 8 L 12 4 M 0 10 L stroke}
>> matrix makepattern
/Pat8 exch def
<< Tile8x8
 /PaintProc {0.5 setlinewidth pop 0 -2 M 12 4 L
	-4 0 M 12 8 L -4 4 M 8 10 L stroke}
>> matrix makepattern
/Pat9 exch def
/Pattern1 {PatternBgnd KeepColor Pat1 setpattern} bind def
/Pattern2 {PatternBgnd KeepColor Pat2 setpattern} bind def
/Pattern3 {PatternBgnd KeepColor Pat3 setpattern} bind def
/Pattern4 {PatternBgnd KeepColor Landscape {Pat5} {Pat4} ifelse setpattern} bind def
/Pattern5 {PatternBgnd KeepColor Landscape {Pat4} {Pat5} ifelse setpattern} bind def
/Pattern6 {PatternBgnd KeepColor Landscape {Pat9} {Pat6} ifelse setpattern} bind def
/Pattern7 {PatternBgnd KeepColor Landscape {Pat8} {Pat7} ifelse setpattern} bind def
} def
%
%
%End of PostScript Level 2 code
%
/PatternBgnd {
  TransparentPatterns {} {gsave 1 setgray fill grestore} ifelse
} def
%
% Substitute for Level 2 pattern fill codes with
% grayscale if Level 2 support is not selected.
%
/Level1PatternFill {
/Pattern1 {0.250 Density} bind def
/Pattern2 {0.500 Density} bind def
/Pattern3 {0.750 Density} bind def
/Pattern4 {0.125 Density} bind def
/Pattern5 {0.375 Density} bind def
/Pattern6 {0.625 Density} bind def
/Pattern7 {0.875 Density} bind def
} def
%
% Now test for support of Level 2 code
%
Level1 {Level1PatternFill} {Level2PatternFill} ifelse
%
/Symbol-Oblique /Symbol findfont [1 0 .167 1 0 0] makefont
dup length dict begin {1 index /FID eq {pop pop} {def} ifelse} forall
currentdict end definefont pop
/MFshow {
   { dup 5 get 3 ge
     { 5 get 3 eq {gsave} {grestore} ifelse }
     {dup dup 0 get findfont exch 1 get scalefont setfont
     [ currentpoint ] exch dup 2 get 0 exch R dup 5 get 2 ne {dup dup 6
     get exch 4 get {Gshow} {stringwidth pop 0 R} ifelse }if dup 5 get 0 eq
     {dup 3 get {2 get neg 0 exch R pop} {pop aload pop M} ifelse} {dup 5
     get 1 eq {dup 2 get exch dup 3 get exch 6 get stringwidth pop -2 div
     dup 0 R} {dup 6 get stringwidth pop -2 div 0 R 6 get
     show 2 index {aload pop M neg 3 -1 roll neg R pop pop} {pop pop pop
     pop aload pop M} ifelse }ifelse }ifelse }
     ifelse }
   forall} def
/Gswidth {dup type /stringtype eq {stringwidth} {pop (n) stringwidth} ifelse} def
/MFwidth {0 exch { dup 5 get 3 ge { 5 get 3 eq { 0 } { pop } ifelse }
 {dup 3 get{dup dup 0 get findfont exch 1 get scalefont setfont
     6 get Gswidth pop add} {pop} ifelse} ifelse} forall} def
/MLshow { currentpoint stroke M
  0 exch R
  Blacktext {gsave 0 setgray MFshow grestore} {MFshow} ifelse } bind def
/MRshow { currentpoint stroke M
  exch dup MFwidth neg 3 -1 roll R
  Blacktext {gsave 0 setgray MFshow grestore} {MFshow} ifelse } bind def
/MCshow { currentpoint stroke M
  exch dup MFwidth -2 div 3 -1 roll R
  Blacktext {gsave 0 setgray MFshow grestore} {MFshow} ifelse } bind def
/XYsave    { [( ) 1 2 true false 3 ()] } bind def
/XYrestore { [( ) 1 2 true false 4 ()] } bind def
Level1 SuppressPDFMark or 
{} {
/SDict 10 dict def
systemdict /pdfmark known not {
  userdict /pdfmark systemdict /cleartomark get put
} if
SDict begin [
  /Title (vmulti.ps)
  /Subject (gnuplot plot)
  /Creator (gnuplot 4.6 patchlevel 0)
  /Author (atheiste)
%  /Producer (gnuplot)
%  /Keywords ()
  /CreationDate (Wed Oct 10 12:52:01 2012)
  /DOCINFO pdfmark
end
} ifelse
end
%%EndProlog
%%Page: 1 1
gnudict begin
gsave
doclip
50 50 translate
0.100 0.100 scale
90 rotate
0 -5040 translate
0 setgray
newpath
(Helvetica) findfont 130 scalefont setfont
BackgroundColor 0 lt 3 1 roll 0 lt exch 0 lt or or not {gsave BackgroundColor C clippath fill grestore} if
1.000 UL
LTb
1.000 UL
LTb
928 1273 M
3032 2322 L
6272 1641 M
3032 2322 L
928 1273 M
0 2256 V
3032 2322 M
0 752 V
6272 1641 M
0 752 V
4168 591 M
51 26 V
stroke
4104 538 M
[ [(Helvetica) 130.0 0.0 true true 0 (-10)]
] -43.3 MCshow
1.000 UL
LTb
1.000 UL
LTb
6272 1641 M
-51 -26 V
3358 762 M
52 25 V
stroke
3295 709 M
[ [(Helvetica) 130.0 0.0 true true 0 (-5)]
] -43.3 MCshow
1.000 UL
LTb
1.000 UL
LTb
5462 1811 M
-51 -25 V
2548 932 M
52 26 V
stroke
2485 879 M
[ [(Helvetica) 130.0 0.0 true true 0 ( 0)]
] -43.3 MCshow
1.000 UL
LTb
1.000 UL
LTb
4652 1982 M
-52 -26 V
1738 1102 M
51 26 V
stroke
1675 1050 M
[ [(Helvetica) 130.0 0.0 true true 0 ( 5)]
] -43.3 MCshow
1.000 UL
LTb
1.000 UL
LTb
3842 2152 M
-52 -26 V
928 1273 M
51 25 V
stroke
864 1220 M
[ [(Helvetica) 130.0 0.0 true true 0 ( 10)]
] -43.3 MCshow
1.000 UL
LTb
1.000 UL
LTb
3032 2322 M
-51 -25 V
6272 1641 M
-53 11 V
stroke
6337 1618 M
[ [(Helvetica) 130.0 0.0 true true 0 (-10)]
] -43.3 MCshow
1.000 UL
LTb
1.000 UL
LTb
3032 2322 M
53 -11 V
5746 1378 M
-53 12 V
stroke
5811 1355 M
[ [(Helvetica) 130.0 0.0 true true 0 (-5)]
] -43.3 MCshow
1.000 UL
LTb
1.000 UL
LTb
2506 2060 M
53 -11 V
5220 1116 M
-53 11 V
stroke
5285 1093 M
[ [(Helvetica) 130.0 0.0 true true 0 ( 0)]
] -43.3 MCshow
1.000 UL
LTb
1.000 UL
LTb
1980 1798 M
53 -12 V
4694 854 M
-53 11 V
stroke
4759 831 M
[ [(Helvetica) 130.0 0.0 true true 0 ( 5)]
] -43.3 MCshow
1.000 UL
LTb
1.000 UL
LTb
1454 1535 M
53 -11 V
4168 591 M
-53 11 V
stroke
4233 568 M
[ [(Helvetica) 130.0 0.0 true true 0 ( 10)]
] -43.3 MCshow
1.000 UL
LTb
1.000 UL
LTb
928 1273 M
53 -11 V
-53 763 R
63 0 V
stroke
802 2025 M
[ [(Helvetica) 130.0 0.0 true true 0 ( 0)]
] -43.3 MRshow
1.000 UL
LTb
1.000 UL
LTb
928 2176 M
63 0 V
stroke
802 2176 M
[ [(Helvetica) 130.0 0.0 true true 0 ( 0.1)]
] -43.3 MRshow
1.000 UL
LTb
1.000 UL
LTb
928 2326 M
63 0 V
stroke
802 2326 M
[ [(Helvetica) 130.0 0.0 true true 0 ( 0.2)]
] -43.3 MRshow
1.000 UL
LTb
1.000 UL
LTb
928 2477 M
63 0 V
stroke
802 2477 M
[ [(Helvetica) 130.0 0.0 true true 0 ( 0.3)]
] -43.3 MRshow
1.000 UL
LTb
1.000 UL
LTb
928 2626 M
63 0 V
stroke
802 2626 M
[ [(Helvetica) 130.0 0.0 true true 0 ( 0.4)]
] -43.3 MRshow
1.000 UL
LTb
1.000 UL
LTb
928 2777 M
63 0 V
stroke
802 2777 M
[ [(Helvetica) 130.0 0.0 true true 0 ( 0.5)]
] -43.3 MRshow
1.000 UL
LTb
1.000 UL
LTb
928 2927 M
63 0 V
stroke
802 2927 M
[ [(Helvetica) 130.0 0.0 true true 0 ( 0.6)]
] -43.3 MRshow
1.000 UL
LTb
1.000 UL
LTb
928 3078 M
63 0 V
stroke
802 3078 M
[ [(Helvetica) 130.0 0.0 true true 0 ( 0.7)]
] -43.3 MRshow
1.000 UL
LTb
1.000 UL
LTb
928 3228 M
63 0 V
stroke
802 3228 M
[ [(Helvetica) 130.0 0.0 true true 0 ( 0.8)]
] -43.3 MRshow
1.000 UL
LTb
1.000 UL
LTb
928 3379 M
63 0 V
stroke
802 3379 M
[ [(Helvetica) 130.0 0.0 true true 0 ( 0.9)]
] -43.3 MRshow
1.000 UL
LTb
1.000 UL
LTb
928 3529 M
63 0 V
stroke
802 3529 M
[ [(Helvetica) 130.0 0.0 true true 0 ( 1)]
] -43.3 MRshow
1.000 UL
LTb
1.000 UP
% Begin plot #1
LCb setrgbcolor
5741 4586 M
[ [(Helvetica) 130.0 0.0 true true 0 (Velocity reward multiplication)]
] -43.3 MRshow
1.000 UL
LT0
5819 4586 M
375 0 V
78 -2193 R
-33 7 V
-32 7 V
-33 7 V
-33 7 V
-33 7 V
-32 7 V
-33 7 V
-33 7 V
-33 7 V
-32 7 V
-33 7 V
-33 7 V
-32 7 V
-33 7 V
-33 8 V
-33 7 V
-32 7 V
-33 7 V
-33 8 V
-33 7 V
-32 7 V
-33 8 V
-33 7 V
-33 7 V
-32 8 V
-33 7 V
-33 6 V
-32 8 V
-33 7 V
-33 7 V
-33 8 V
-32 7 V
-33 7 V
-33 8 V
-33 7 V
-32 7 V
-33 7 V
-33 8 V
-33 7 V
-32 7 V
-33 7 V
-33 7 V
-32 7 V
-33 7 V
-33 7 V
-33 7 V
-32 7 V
-33 7 V
-33 7 V
-33 7 V
-32 7 V
-33 7 V
-33 7 V
-33 6 V
-32 7 V
-33 7 V
-33 7 V
-32 6 V
-33 7 V
-33 6 V
-33 7 V
-32 7 V
-33 6 V
-33 7 V
-33 6 V
-32 7 V
-33 6 V
-33 6 V
-33 7 V
-32 6 V
-33 7 V
-33 6 V
-32 7 V
-33 6 V
-33 6 V
-33 7 V
-32 6 V
-33 7 V
-33 6 V
-33 7 V
-32 6 V
-32 7 V
-33 6 V
-33 7 V
-32 6 V
-33 7 V
-33 6 V
-32 7 V
-33 7 V
-33 6 V
-33 7 V
-32 7 V
-33 7 V
-33 6 V
-33 7 V
-32 7 V
-33 7 V
-33 7 V
-33 7 V
6038 2278 M
-33 6 V
-32 6 V
stroke 5973 2290 M
-33 7 V
-33 7 V
-32 8 V
-33 7 V
-33 8 V
-33 8 V
-32 8 V
-33 9 V
-33 8 V
-33 9 V
-32 10 V
-33 9 V
-33 9 V
-33 10 V
-32 10 V
-33 10 V
-33 10 V
-32 10 V
-33 11 V
-33 10 V
-33 11 V
-32 10 V
-33 11 V
-33 10 V
-33 11 V
-32 10 V
-33 11 V
-33 11 V
-33 10 V
-32 10 V
-33 11 V
-33 9 V
-32 10 V
-33 10 V
-33 9 V
-33 10 V
-32 9 V
-33 10 V
-33 9 V
-33 8 V
-32 9 V
-33 8 V
-33 8 V
-33 8 V
-32 8 V
-33 7 V
-33 7 V
-32 7 V
-33 7 V
-33 6 V
-33 7 V
-32 5 V
-33 6 V
-33 5 V
-33 6 V
-32 5 V
-33 4 V
-33 5 V
-33 4 V
-32 5 V
-33 4 V
-33 3 V
-32 4 V
-33 4 V
-33 3 V
-33 4 V
-32 3 V
-33 3 V
-33 3 V
-33 4 V
-32 3 V
-33 3 V
-32 3 V
-33 3 V
-32 4 V
-33 3 V
-33 3 V
-32 4 V
-33 4 V
-33 3 V
-33 4 V
-32 4 V
-33 5 V
-33 4 V
-33 5 V
-32 5 V
-33 5 V
-33 5 V
-33 5 V
-32 6 V
-33 6 V
-33 6 V
-32 7 V
-33 6 V
-33 7 V
-33 8 V
-32 7 V
5804 2165 M
-32 4 V
-33 5 V
-33 7 V
-33 7 V
-32 9 V
-33 10 V
stroke 5608 2207 M
-33 12 V
-32 12 V
-33 14 V
-33 15 V
-33 16 V
-32 17 V
-33 18 V
-33 19 V
-33 19 V
-32 21 V
-33 21 V
-33 23 V
-33 22 V
-32 24 V
-33 24 V
-33 24 V
-32 25 V
-33 24 V
-33 26 V
-33 24 V
-32 25 V
-33 25 V
-33 25 V
-33 25 V
-32 24 V
-33 24 V
-33 24 V
-33 23 V
-32 22 V
-33 22 V
-33 21 V
-32 20 V
-33 19 V
-33 18 V
-33 18 V
-32 16 V
-33 15 V
-33 14 V
-33 13 V
-32 12 V
-33 10 V
-33 10 V
-33 8 V
-32 7 V
-33 5 V
-33 5 V
-32 3 V
-33 2 V
-33 1 V
-33 0 V
-32 -2 V
-33 -2 V
-33 -4 V
-33 -4 V
-32 -6 V
-33 -6 V
-33 -7 V
-33 -8 V
-32 -9 V
-33 -9 V
-33 -10 V
-31 -10 V
-33 -11 V
-33 -11 V
-33 -11 V
-32 -11 V
-33 -12 V
-33 -11 V
-33 -11 V
-32 -12 V
-33 -10 V
-33 -11 V
-33 -10 V
-32 -10 V
-33 -9 V
-33 -8 V
-32 -8 V
-33 -7 V
-33 -6 V
-33 -5 V
-32 -4 V
-33 -3 V
-33 -2 V
-33 -1 V
-32 0 V
-33 1 V
-33 2 V
-33 4 V
-32 5 V
-33 6 V
-33 7 V
-32 9 V
-33 10 V
5571 2053 M
-33 2 V
-33 3 V
-33 6 V
-32 9 V
-33 11 V
-33 13 V
-33 16 V
-32 18 V
-33 20 V
-33 23 V
stroke 5243 2174 M
-33 25 V
-32 27 V
-33 29 V
-33 31 V
-32 33 V
-33 34 V
-33 36 V
-33 37 V
-32 39 V
-33 40 V
-33 41 V
-33 40 V
-32 43 V
-33 43 V
-33 43 V
-33 43 V
-32 44 V
-33 43 V
-33 43 V
-32 42 V
-33 42 V
-33 42 V
-33 40 V
-32 39 V
-33 38 V
-33 36 V
-33 35 V
-32 33 V
-33 32 V
-33 30 V
-33 27 V
-32 26 V
-33 24 V
-33 21 V
-32 19 V
-33 16 V
-33 15 V
-33 11 V
-32 10 V
-33 7 V
-33 4 V
-33 2 V
-32 0 V
-33 -3 V
-33 -5 V
-33 -8 V
-32 -10 V
-33 -12 V
-33 -14 V
-32 -15 V
-32 -18 V
-33 -20 V
-33 -21 V
-32 -23 V
-33 -24 V
-33 -25 V
-33 -27 V
-32 -27 V
-33 -28 V
-33 -29 V
-33 -29 V
-32 -30 V
-33 -29 V
-33 -30 V
-32 -29 V
-33 -29 V
-33 -29 V
-33 -28 V
-32 -27 V
-33 -26 V
-33 -25 V
-33 -24 V
-32 -22 V
-33 -20 V
-33 -19 V
-33 -17 V
-32 -16 V
-33 -13 V
-33 -11 V
-32 -9 V
-33 -7 V
-33 -4 V
-33 -2 V
-32 0 V
-33 3 V
-33 5 V
-33 8 V
-32 10 V
-33 13 V
5337 1940 M
-33 -1 V
-33 3 V
-32 6 V
-33 9 V
-33 12 V
-33 15 V
-32 19 V
-33 22 V
-33 25 V
-33 28 V
-32 31 V
-33 34 V
-33 37 V
-33 39 V
stroke 4878 2219 M
-32 41 V
-33 44 V
-33 46 V
-32 47 V
-33 50 V
-33 51 V
-33 52 V
-32 53 V
-33 54 V
-33 55 V
-33 55 V
-32 56 V
-33 56 V
-33 56 V
-33 55 V
-32 55 V
-33 53 V
-33 53 V
-32 51 V
-33 50 V
-33 49 V
-33 46 V
-32 45 V
-33 42 V
-33 40 V
-33 37 V
-32 35 V
-33 32 V
-33 29 V
-33 26 V
-32 23 V
-33 20 V
-33 17 V
-32 13 V
-33 11 V
-33 7 V
-33 3 V
-32 0 V
-33 -3 V
-32 -6 V
-33 -9 V
-32 -12 V
-33 -16 V
-33 -18 V
-33 -21 V
-32 -24 V
-33 -26 V
-33 -28 V
-32 -31 V
-33 -33 V
-33 -34 V
-33 -36 V
-32 -38 V
-33 -39 V
-33 -40 V
-33 -41 V
-32 -41 V
-33 -42 V
-33 -42 V
-33 -42 V
-32 -42 V
-33 -41 V
-33 -41 V
-32 -39 V
-33 -39 V
-33 -37 V
-33 -36 V
-32 -34 V
-33 -32 V
-33 -30 V
-33 -27 V
-32 -26 V
-33 -23 V
-33 -20 V
-33 -17 V
-32 -14 V
-33 -11 V
-33 -9 V
-32 -4 V
-33 -1 V
-33 1 V
-33 4 V
-32 8 V
-33 11 V
-33 15 V
5103 1824 M
-33 -1 V
-33 2 V
-32 6 V
-33 9 V
-33 12 V
-33 16 V
-32 19 V
-33 22 V
-33 25 V
-32 28 V
-33 31 V
-33 34 V
-33 36 V
-32 39 V
-33 42 V
-33 43 V
-33 46 V
-32 48 V
stroke 4514 2281 M
-33 49 V
-33 51 V
-33 53 V
-32 53 V
-33 54 V
-33 54 V
-32 56 V
-33 56 V
-33 55 V
-33 56 V
-32 55 V
-33 55 V
-33 54 V
-33 52 V
-32 52 V
-33 50 V
-33 48 V
-33 47 V
-32 44 V
-33 42 V
-33 40 V
-32 38 V
-33 34 V
-33 32 V
-33 30 V
-32 26 V
-33 23 V
-32 20 V
-33 16 V
-32 14 V
-33 10 V
-33 7 V
-33 3 V
-32 1 V
-33 -3 V
-33 -6 V
-32 -10 V
-33 -12 V
-33 -15 V
-33 -18 V
-32 -21 V
-33 -24 V
-33 -26 V
-33 -29 V
-32 -30 V
-33 -33 V
-33 -35 V
-33 -36 V
-32 -38 V
-33 -39 V
-33 -40 V
-32 -40 V
-33 -42 V
-33 -42 V
-33 -42 V
-32 -42 V
-33 -42 V
-33 -41 V
-33 -40 V
-32 -40 V
-33 -39 V
-33 -37 V
-33 -35 V
-32 -34 V
-33 -32 V
-33 -30 V
-32 -28 V
-33 -24 V
-33 -23 V
-33 -20 V
-32 -17 V
-33 -15 V
-33 -11 V
-33 -8 V
-32 -5 V
-33 -2 V
-33 1 V
-33 5 V
-32 8 V
-33 11 V
-33 15 V
4869 1704 M
-33 1 V
-32 3 V
-33 6 V
-33 9 V
-33 11 V
-32 13 V
-33 16 V
-33 18 V
-33 21 V
-32 22 V
-33 25 V
-33 27 V
-32 29 V
-33 31 V
-33 33 V
-33 34 V
-32 36 V
-33 38 V
-33 38 V
-33 40 V
-32 41 V
-33 42 V
stroke 4149 2238 M
-33 42 V
-33 43 V
-32 43 V
-33 43 V
-33 44 V
-32 43 V
-33 43 V
-33 43 V
-33 41 V
-32 41 V
-33 40 V
-33 39 V
-33 38 V
-32 36 V
-33 35 V
-33 34 V
-32 31 V
-32 30 V
-33 28 V
-33 25 V
-32 24 V
-33 21 V
-33 19 V
-33 17 V
-32 14 V
-33 12 V
-33 9 V
-33 7 V
-32 4 V
-33 2 V
-33 0 V
-33 -3 V
-32 -5 V
-33 -8 V
-33 -10 V
-32 -11 V
-33 -14 V
-33 -16 V
-33 -18 V
-32 -20 V
-33 -21 V
-33 -23 V
-33 -24 V
-32 -25 V
-33 -26 V
-33 -28 V
-33 -28 V
-32 -29 V
-33 -29 V
-33 -29 V
-32 -30 V
-33 -30 V
-33 -29 V
-33 -29 V
-32 -29 V
-33 -28 V
-33 -26 V
-33 -26 V
-32 -25 V
-33 -23 V
-33 -23 V
-33 -20 V
-32 -19 V
-33 -17 V
-33 -16 V
-32 -13 V
-33 -11 V
-33 -9 V
-33 -7 V
-32 -4 V
-33 -2 V
-33 0 V
-33 3 V
-32 5 V
-33 8 V
-33 10 V
-33 13 V
4635 1582 M
-33 4 V
-32 5 V
-33 7 V
-33 7 V
-32 9 V
-33 10 V
-33 12 V
-33 12 V
-32 14 V
-33 15 V
-33 16 V
-33 17 V
-32 18 V
-33 19 V
-33 19 V
-33 21 V
-32 21 V
-33 23 V
-33 22 V
-32 24 V
-33 24 V
-33 24 V
-33 25 V
-32 24 V
-33 26 V
-33 25 V
stroke 3784 2025 M
-33 25 V
-32 25 V
-33 25 V
-33 25 V
-33 24 V
-31 24 V
-33 24 V
-33 23 V
-32 22 V
-33 22 V
-33 21 V
-33 20 V
-32 19 V
-33 18 V
-33 18 V
-33 16 V
-32 15 V
-33 14 V
-33 13 V
-33 12 V
-32 10 V
-33 10 V
-33 8 V
-32 7 V
-33 5 V
-33 5 V
-33 3 V
-32 2 V
-33 1 V
-33 0 V
-33 -2 V
-32 -2 V
-33 -4 V
-33 -4 V
-33 -6 V
-32 -6 V
-33 -7 V
-33 -8 V
-32 -9 V
-33 -9 V
-33 -10 V
-33 -10 V
-32 -11 V
-33 -11 V
-33 -11 V
-33 -11 V
-32 -12 V
-33 -11 V
-33 -11 V
-33 -12 V
-32 -10 V
-33 -11 V
-33 -10 V
-32 -10 V
-33 -9 V
-33 -8 V
-33 -8 V
-32 -7 V
-33 -6 V
-33 -5 V
-33 -4 V
-32 -3 V
-33 -2 V
-33 -1 V
-33 0 V
-32 1 V
-33 2 V
-33 4 V
-32 5 V
-33 6 V
-33 7 V
-33 9 V
-32 9 V
4401 1461 M
-32 7 V
-33 6 V
-33 7 V
-33 7 V
-32 7 V
-33 8 V
-33 8 V
-32 8 V
-33 8 V
-33 9 V
-33 8 V
-32 9 V
-33 9 V
-33 10 V
-33 9 V
-32 10 V
-33 10 V
-33 10 V
-33 10 V
-32 10 V
-33 10 V
-33 11 V
-32 10 V
-33 11 V
-32 10 V
-33 11 V
-32 11 V
-33 10 V
-33 11 V
-33 10 V
stroke 3420 1736 M
-32 11 V
-33 10 V
-33 10 V
-33 11 V
-32 10 V
-33 9 V
-33 10 V
-32 10 V
-33 9 V
-33 9 V
-33 9 V
-32 9 V
-33 9 V
-33 8 V
-33 8 V
-32 8 V
-33 8 V
-33 7 V
-33 7 V
-32 7 V
-33 7 V
-33 6 V
-32 6 V
-33 6 V
-33 6 V
-33 5 V
-32 5 V
-33 5 V
-33 5 V
-33 5 V
-32 4 V
-33 4 V
-33 4 V
-33 4 V
-32 4 V
-33 4 V
-33 3 V
-32 3 V
-33 4 V
-33 3 V
-33 3 V
-32 3 V
-33 4 V
-33 3 V
-33 3 V
-32 3 V
-33 3 V
-33 4 V
-33 3 V
-32 4 V
-33 3 V
-33 4 V
-32 4 V
-33 4 V
-33 4 V
-33 5 V
-32 4 V
-33 5 V
-33 5 V
-33 6 V
-32 5 V
-33 6 V
-33 6 V
-33 6 V
-32 7 V
-33 6 V
-33 7 V
-32 7 V
-33 8 V
4168 1344 M
-33 7 V
-33 7 V
-33 6 V
-32 7 V
-33 7 V
-33 7 V
-33 7 V
-32 7 V
-33 7 V
-33 7 V
-33 8 V
-32 7 V
-33 7 V
-33 7 V
-32 7 V
-33 7 V
-33 8 V
-32 7 V
-32 7 V
-33 8 V
-33 7 V
-33 7 V
-32 8 V
-33 7 V
-33 7 V
-33 8 V
-32 7 V
-33 7 V
-33 8 V
-32 7 V
-33 7 V
-33 8 V
-33 7 V
-32 7 V
stroke 3056 1588 M
-33 7 V
-33 8 V
-33 7 V
-32 7 V
-33 7 V
-33 8 V
-33 7 V
-32 7 V
-33 7 V
-33 7 V
-32 7 V
-33 7 V
-33 7 V
-33 7 V
-32 7 V
-33 7 V
-33 7 V
-33 6 V
-32 7 V
-33 7 V
-33 7 V
-33 6 V
-32 7 V
-33 7 V
-33 6 V
-32 7 V
-33 7 V
-33 6 V
-33 7 V
-32 6 V
-33 7 V
-33 6 V
-33 7 V
-32 6 V
-33 6 V
-33 7 V
-33 6 V
-32 7 V
-33 6 V
-33 7 V
-32 6 V
-33 6 V
-33 7 V
-33 6 V
-32 7 V
-33 6 V
-33 7 V
-33 6 V
-32 7 V
-33 6 V
-33 7 V
-33 6 V
-32 7 V
-33 7 V
-33 6 V
-32 7 V
-33 7 V
-33 6 V
-33 7 V
-32 7 V
-33 7 V
-33 7 V
-33 7 V
-32 6 V
-33 7 V
5344 368 R
-21 -10 V
-21 -11 V
-22 -11 V
-21 -10 V
-21 -11 V
-21 -10 V
-22 -11 V
-21 -10 V
-21 -11 V
-22 -10 V
-21 -10 V
-21 -11 V
-21 -10 V
-22 -10 V
-21 -11 V
-21 -10 V
-21 -10 V
-22 -10 V
-21 -10 V
-21 -11 V
-21 -10 V
-22 -10 V
-21 -10 V
-21 -10 V
-21 -10 V
-22 -11 V
-21 -10 V
-21 -10 V
-21 -10 V
-22 -10 V
-21 -10 V
-21 -10 V
-21 -11 V
-22 -10 V
-21 -10 V
-21 -10 V
-21 -10 V
-22 -11 V
stroke 5464 2002 M
-21 -10 V
-21 -10 V
-22 -11 V
-21 -10 V
-21 -10 V
-21 -11 V
-22 -10 V
-21 -11 V
-21 -10 V
-21 -11 V
-22 -10 V
-21 -11 V
-21 -11 V
-21 -10 V
-22 -11 V
-21 -11 V
-21 -10 V
-21 -11 V
-22 -11 V
-21 -11 V
-21 -11 V
-21 -11 V
-22 -11 V
-21 -10 V
-21 -11 V
-21 -11 V
-22 -11 V
-21 -11 V
-21 -11 V
-21 -11 V
-22 -12 V
-21 -11 V
-21 -11 V
-21 -11 V
-22 -11 V
-21 -11 V
-21 -11 V
-22 -11 V
-21 -11 V
-21 -11 V
-21 -11 V
-22 -11 V
-21 -11 V
-21 -11 V
-21 -11 V
-22 -11 V
-21 -11 V
-21 -11 V
-21 -11 V
-22 -11 V
-21 -10 V
-21 -11 V
-21 -11 V
-22 -11 V
-21 -10 V
-21 -11 V
-21 -11 V
-22 -10 V
-21 -11 V
-21 -11 V
-21 -10 V
5912 2470 M
-21 -11 V
-22 -11 V
-21 -11 V
-21 -10 V
-21 -10 V
-22 -10 V
-21 -10 V
-21 -10 V
-21 -9 V
-22 -9 V
-21 -9 V
-21 -8 V
-21 -8 V
-22 -9 V
-21 -8 V
-21 -7 V
-21 -8 V
-22 -7 V
-21 -8 V
-21 -7 V
-21 -7 V
-22 -7 V
-21 -7 V
-21 -7 V
-21 -7 V
-22 -7 V
-21 -7 V
-21 -7 V
-21 -7 V
-22 -7 V
-21 -7 V
-21 -7 V
-22 -7 V
-21 -7 V
-21 -8 V
-21 -7 V
-22 -8 V
-21 -8 V
-21 -8 V
-21 -8 V
-22 -9 V
-21 -9 V
stroke 5019 2127 M
-21 -8 V
-21 -10 V
-22 -9 V
-21 -10 V
-21 -9 V
-21 -11 V
-22 -10 V
-21 -11 V
-21 -10 V
-21 -11 V
-22 -12 V
-21 -11 V
-21 -12 V
-21 -12 V
-22 -13 V
-21 -12 V
-21 -13 V
-21 -13 V
-22 -13 V
-21 -13 V
-21 -14 V
-21 -13 V
-22 -14 V
-21 -14 V
-21 -14 V
-22 -14 V
-21 -14 V
-21 -14 V
-21 -15 V
-22 -14 V
-21 -14 V
-21 -15 V
-21 -14 V
-22 -14 V
-21 -14 V
-21 -14 V
-21 -15 V
-22 -13 V
-21 -14 V
-21 -14 V
-21 -14 V
-22 -13 V
-21 -13 V
-21 -13 V
-21 -13 V
-22 -13 V
-21 -12 V
-21 -12 V
-21 -12 V
-22 -12 V
-21 -12 V
-21 -11 V
-21 -11 V
-22 -11 V
-21 -10 V
-21 -10 V
-22 -10 V
5552 2550 M
-21 -14 V
-22 -12 V
-21 -11 V
-21 -10 V
-21 -8 V
-22 -8 V
-21 -6 V
-21 -5 V
-21 -4 V
-22 -2 V
-21 -2 V
-21 -1 V
-21 1 V
-22 1 V
-21 3 V
-21 3 V
-21 4 V
-22 5 V
-21 5 V
-21 6 V
-21 6 V
-22 7 V
-21 7 V
-21 7 V
-22 8 V
-21 8 V
-21 7 V
-21 8 V
-22 8 V
-21 7 V
-21 7 V
-21 6 V
-22 5 V
-21 6 V
-21 5 V
-21 4 V
-22 3 V
-21 3 V
-21 2 V
-21 1 V
-22 -1 V
-21 -1 V
-21 -2 V
-21 -3 V
-22 -5 V
-21 -6 V
stroke 4574 2592 M
-21 -7 V
-21 -7 V
-22 -9 V
-21 -11 V
-21 -12 V
-21 -13 V
-22 -14 V
-21 -15 V
-21 -17 V
-22 -18 V
-21 -19 V
-21 -20 V
-21 -21 V
-22 -22 V
-21 -23 V
-21 -24 V
-21 -24 V
-22 -26 V
-21 -26 V
-21 -26 V
-21 -28 V
-22 -27 V
-21 -29 V
-21 -28 V
-21 -29 V
-22 -29 V
-21 -28 V
-21 -29 V
-21 -29 V
-22 -29 V
-21 -28 V
-21 -28 V
-21 -28 V
-22 -27 V
-21 -26 V
-21 -26 V
-21 -25 V
-22 -25 V
-21 -23 V
-21 -23 V
-21 -22 V
-22 -20 V
-21 -20 V
-21 -18 V
-22 -18 V
-20 -16 V
-21 -15 V
-21 -14 V
-22 -13 V
-21 -11 V
-21 -10 V
-21 -9 V
-22 -8 V
5192 2629 M
-21 -16 V
-22 -14 V
-21 -11 V
-21 -8 V
-21 -7 V
-22 -4 V
-21 -2 V
-21 1 V
-21 3 V
-22 5 V
-21 8 V
-21 8 V
-22 12 V
-21 13 V
-21 15 V
-21 17 V
-22 19 V
-21 20 V
-21 21 V
-21 22 V
-22 24 V
-21 24 V
-21 25 V
-21 25 V
-22 26 V
-21 26 V
-21 26 V
-21 25 V
-22 26 V
-21 25 V
-21 24 V
-21 24 V
-22 23 V
-21 21 V
-21 21 V
-21 19 V
-22 17 V
-21 16 V
-21 14 V
-21 12 V
-22 11 V
-21 8 V
-21 6 V
-21 3 V
-22 2 V
-21 -1 V
-21 -3 V
-22 -6 V
-21 -8 V
-21 -11 V
stroke 4129 3175 M
-21 -13 V
-22 -15 V
-21 -18 V
-21 -20 V
-21 -23 V
-22 -25 V
-21 -27 V
-21 -30 V
-21 -31 V
-22 -34 V
-21 -35 V
-21 -37 V
-21 -39 V
-22 -40 V
-21 -41 V
-21 -43 V
-21 -44 V
-22 -45 V
-21 -44 V
-21 -47 V
-21 -46 V
-22 -47 V
-21 -48 V
-21 -47 V
-20 -47 V
-22 -46 V
-21 -46 V
-21 -46 V
-21 -44 V
-22 -44 V
-21 -42 V
-21 -41 V
-22 -40 V
-21 -38 V
-21 -37 V
-21 -34 V
-22 -33 V
-21 -31 V
-21 -28 V
-21 -27 V
-22 -24 V
-21 -22 V
-21 -19 V
-21 -17 V
-22 -15 V
-21 -12 V
-21 -10 V
-21 -7 V
-22 -5 V
4832 2708 M
-21 -18 V
-22 -15 V
-21 -12 V
-21 -8 V
-22 -5 V
-21 -2 V
-21 1 V
-21 5 V
-22 7 V
-21 11 V
-21 13 V
-21 17 V
-22 19 V
-21 21 V
-21 24 V
-21 26 V
-22 29 V
-21 30 V
-21 32 V
-21 33 V
-22 35 V
-21 36 V
-21 37 V
-21 38 V
-22 38 V
-21 38 V
-21 38 V
-21 38 V
-22 38 V
-21 37 V
-21 37 V
-21 35 V
-22 34 V
-21 32 V
-21 31 V
-21 29 V
-22 27 V
-21 25 V
-21 22 V
-22 20 V
-21 18 V
-21 14 V
-21 12 V
-22 8 V
-21 6 V
-21 2 V
-21 0 V
-22 -4 V
-21 -8 V
-21 -10 V
-21 -14 V
-22 -17 V
-21 -21 V
-21 -24 V
stroke 3684 3543 M
-21 -26 V
-22 -30 V
-21 -33 V
-20 -36 V
-21 -38 V
-22 -41 V
-21 -44 V
-21 -46 V
-21 -48 V
-22 -50 V
-21 -52 V
-21 -54 V
-21 -55 V
-22 -57 V
-21 -57 V
-21 -58 V
-22 -59 V
-21 -60 V
-21 -59 V
-21 -59 V
-22 -59 V
-21 -59 V
-21 -58 V
-21 -57 V
-22 -56 V
-21 -55 V
-21 -53 V
-21 -51 V
-22 -50 V
-21 -47 V
-21 -45 V
-21 -43 V
-22 -40 V
-21 -38 V
-21 -35 V
-21 -31 V
-22 -29 V
-21 -26 V
-21 -22 V
-21 -20 V
-22 -16 V
-21 -12 V
-21 -10 V
-21 -6 V
-22 -3 V
4472 2784 M
-22 -18 V
-21 -15 V
-21 -12 V
-21 -8 V
-22 -6 V
-21 -1 V
-21 1 V
-21 4 V
-22 8 V
-21 11 V
-21 13 V
-21 16 V
-22 19 V
-21 22 V
-21 24 V
-21 26 V
-22 29 V
-21 30 V
-21 32 V
-21 33 V
-22 35 V
-21 36 V
-21 37 V
-21 37 V
-22 38 V
-21 39 V
-21 38 V
-21 38 V
-22 38 V
-21 37 V
-21 36 V
-22 36 V
-21 34 V
-21 32 V
-21 31 V
-22 29 V
-21 27 V
-21 25 V
-21 22 V
-22 20 V
-21 17 V
-20 15 V
-21 11 V
-22 9 V
-21 6 V
-21 2 V
-21 -1 V
-22 -4 V
-21 -7 V
-21 -11 V
-21 -14 V
-22 -17 V
-21 -20 V
-21 -24 V
-21 -27 V
-22 -29 V
-21 -33 V
-21 -36 V
stroke 3240 3494 M
-21 -38 V
-22 -42 V
-21 -43 V
-21 -46 V
-22 -48 V
-21 -51 V
-21 -52 V
-21 -53 V
-22 -55 V
-21 -57 V
-21 -57 V
-21 -59 V
-22 -59 V
-21 -59 V
-21 -60 V
-21 -59 V
-22 -59 V
-21 -58 V
-21 -58 V
-21 -57 V
-22 -56 V
-21 -55 V
-21 -53 V
-21 -51 V
-22 -50 V
-21 -47 V
-21 -46 V
-21 -42 V
-22 -41 V
-21 -37 V
-21 -35 V
-21 -32 V
-22 -28 V
-21 -26 V
-21 -23 V
-21 -19 V
-22 -16 V
-21 -13 V
-21 -9 V
-22 -6 V
-21 -3 V
4112 2857 M
-22 -17 V
-21 -14 V
-21 -11 V
-21 -9 V
-22 -7 V
-21 -4 V
-21 -2 V
-21 1 V
-22 3 V
-21 5 V
-21 8 V
-21 9 V
-22 12 V
-21 13 V
-21 16 V
-21 16 V
-22 19 V
-21 20 V
-21 21 V
-22 22 V
-21 24 V
-21 24 V
-21 25 V
-22 25 V
-20 26 V
-21 26 V
-21 26 V
-22 26 V
-21 25 V
-21 25 V
-21 25 V
-22 23 V
-21 23 V
-21 21 V
-21 21 V
-22 19 V
-21 17 V
-21 16 V
-21 14 V
-22 12 V
-21 11 V
-21 8 V
-21 6 V
-22 4 V
-21 1 V
-21 -1 V
-21 -3 V
-22 -6 V
-21 -8 V
-21 -10 V
-21 -14 V
-22 -15 V
-21 -18 V
-21 -20 V
-22 -23 V
-21 -25 V
-21 -27 V
-21 -30 V
-22 -31 V
-21 -33 V
-21 -36 V
-21 -37 V
stroke 2795 3094 M
-22 -38 V
-21 -41 V
-21 -41 V
-21 -43 V
-22 -44 V
-21 -45 V
-21 -45 V
-21 -47 V
-22 -46 V
-21 -47 V
-21 -47 V
-21 -47 V
-22 -47 V
-21 -46 V
-21 -46 V
-21 -46 V
-22 -44 V
-21 -44 V
-21 -42 V
-21 -41 V
-22 -40 V
-21 -38 V
-21 -36 V
-21 -35 V
-22 -33 V
-21 -30 V
-21 -29 V
-22 -27 V
-21 -24 V
-21 -22 V
-21 -19 V
-22 -17 V
-21 -15 V
-21 -12 V
-21 -10 V
-22 -7 V
-21 -5 V
3752 2927 M
-22 -13 V
-21 -12 V
-21 -12 V
-21 -9 V
-22 -9 V
-21 -7 V
-21 -6 V
-20 -5 V
-22 -4 V
-21 -3 V
-21 -1 V
-22 -1 V
-21 1 V
-21 1 V
-21 2 V
-22 4 V
-21 3 V
-21 5 V
-21 5 V
-22 6 V
-21 7 V
-21 7 V
-21 7 V
-22 7 V
-21 8 V
-21 7 V
-21 8 V
-22 8 V
-21 7 V
-21 7 V
-21 7 V
-22 7 V
-21 6 V
-21 5 V
-21 5 V
-22 5 V
-21 3 V
-21 3 V
-21 1 V
-22 1 V
-21 0 V
-21 -1 V
-21 -2 V
-22 -4 V
-21 -4 V
-21 -6 V
-22 -7 V
-21 -8 V
-21 -10 V
-21 -10 V
-22 -12 V
-21 -13 V
-21 -14 V
-21 -16 V
-22 -16 V
-21 -18 V
-21 -19 V
-21 -20 V
-22 -21 V
-21 -22 V
-21 -23 V
-21 -24 V
-22 -25 V
-21 -25 V
-21 -26 V
-21 -27 V
stroke 2350 2615 M
-22 -27 V
-21 -27 V
-21 -28 V
-21 -28 V
-22 -29 V
-21 -29 V
-21 -29 V
-21 -29 V
-22 -29 V
-21 -28 V
-21 -28 V
-22 -28 V
-21 -28 V
-21 -27 V
-21 -27 V
-22 -26 V
-21 -25 V
-21 -24 V
-21 -24 V
-22 -22 V
-21 -22 V
-21 -21 V
-21 -19 V
-22 -19 V
-21 -17 V
-21 -16 V
-21 -15 V
-22 -14 V
-21 -13 V
-21 -11 V
-21 -10 V
-22 -9 V
-21 -8 V
3393 2999 M
-22 -11 V
-21 -11 V
-21 -11 V
-22 -10 V
-21 -10 V
-21 -10 V
-21 -10 V
-22 -9 V
-21 -10 V
-21 -9 V
-21 -8 V
-22 -9 V
-21 -8 V
-21 -9 V
-21 -7 V
-22 -8 V
-21 -8 V
-21 -7 V
-21 -8 V
-22 -7 V
-21 -7 V
-21 -7 V
-21 -7 V
-22 -7 V
-21 -7 V
-21 -7 V
-21 -7 V
-22 -7 V
-21 -7 V
-21 -7 V
-21 -7 V
-22 -7 V
-21 -7 V
-21 -7 V
-22 -8 V
-21 -7 V
-21 -8 V
-21 -8 V
-22 -8 V
-21 -8 V
-21 -9 V
-21 -9 V
-22 -8 V
-21 -10 V
-21 -9 V
-21 -10 V
-22 -9 V
-21 -11 V
-21 -10 V
-21 -9 V
-22 -11 V
-21 -11 V
-21 -12 V
-21 -11 V
-22 -12 V
-21 -12 V
-21 -13 V
-21 -12 V
-22 -13 V
-21 -13 V
-21 -13 V
-21 -13 V
-22 -14 V
-21 -13 V
-21 -14 V
-21 -14 V
-22 -14 V
-21 -14 V
-21 -14 V
-22 -14 V
stroke 1904 2323 M
-21 -15 V
-21 -14 V
-21 -14 V
-22 -14 V
-21 -15 V
-21 -14 V
-21 -14 V
-22 -14 V
-21 -14 V
-21 -14 V
-21 -14 V
-22 -14 V
-21 -14 V
-21 -13 V
-21 -13 V
-22 -13 V
-21 -13 V
-21 -13 V
-21 -12 V
-22 -12 V
-21 -12 V
-21 -12 V
-21 -12 V
-22 -11 V
-21 -11 V
-21 -11 V
-21 -10 V
-22 -10 V
-21 -10 V
3032 3074 M
-21 -11 V
-21 -10 V
-21 -11 V
-22 -11 V
-21 -10 V
-21 -11 V
-21 -10 V
-22 -11 V
-21 -10 V
-21 -10 V
-21 -11 V
-22 -10 V
-21 -11 V
-21 -10 V
-21 -10 V
-22 -10 V
-21 -11 V
-21 -10 V
-21 -10 V
-22 -10 V
-21 -10 V
-21 -10 V
-21 -11 V
-22 -10 V
-21 -10 V
-21 -10 V
-22 -10 V
-21 -10 V
-21 -10 V
-21 -11 V
-22 -10 V
-21 -10 V
-21 -10 V
-21 -10 V
-22 -11 V
-21 -10 V
-21 -10 V
-21 -10 V
-22 -11 V
-21 -10 V
-21 -10 V
-21 -11 V
-22 -10 V
-21 -10 V
-21 -11 V
-21 -10 V
-22 -11 V
-21 -9 V
-21 -11 V
-21 -10 V
-22 -11 V
-21 -11 V
-21 -10 V
-21 -11 V
-22 -11 V
-21 -11 V
-21 -11 V
-21 -10 V
-22 -11 V
-21 -11 V
-21 -11 V
-22 -11 V
-21 -11 V
-21 -11 V
-21 -11 V
-22 -11 V
-21 -11 V
-21 -11 V
-21 -11 V
-22 -11 V
-21 -11 V
-21 -11 V
-21 -11 V
-22 -11 V
stroke 1459 2297 M
-21 -11 V
-21 -11 V
-21 -12 V
-22 -11 V
-21 -11 V
-21 -11 V
-21 -11 V
-22 -11 V
-21 -11 V
-21 -11 V
-21 -10 V
-22 -11 V
-21 -11 V
-21 -11 V
-21 -11 V
-22 -11 V
-21 -10 V
-21 -11 V
-22 -11 V
-21 -11 V
-21 -10 V
-21 -11 V
-22 -10 V
-21 -11 V
-21 -11 V
% End plot #1
stroke
LTb
6272 1641 M
4168 591 L
928 1273 M
4168 591 L
0 753 V
1.000 UP
stroke
grestore
end
showpage
